…
I will create a new categorical variable, *year_level*, which identifies
the century in which the building was built as *19th century*, *20th
century*, and *21st century*.

``` r
#create year_level and move it forward as first column
apt_buildings %>%
  mutate(year_level = case_when(year_built < 1901 ~ '19th century',
                                year_built < 2001 ~ '20th century', 
                                TRUE ~ '21st century')) %>%
  relocate(year_level)
```

    ## # A tibble: 3,455 × 38
    ##    year_level     id air_conditioning amenities balconies barrier_free_accessi…¹
    ##    <chr>       <dbl> <chr>            <chr>     <chr>     <chr>                 
    ##  1 20th centu… 10359 NONE             Outdoor … YES       YES                   
    ##  2 20th centu… 10360 NONE             Outdoor … YES       NO                    
    ##  3 20th centu… 10361 NONE             <NA>      YES       NO                    
    ##  4 20th centu… 10362 NONE             <NA>      YES       YES                   
    ##  5 20th centu… 10363 NONE             <NA>      NO        NO                    
    ##  6 20th centu… 10364 NONE             <NA>      NO        NO                    
    ##  7 20th centu… 10365 NONE             <NA>      NO        YES                   
    ##  8 20th centu… 10366 CENTRAL AIR      Indoor p… YES       NO                    
    ##  9 20th centu… 10367 NONE             <NA>      YES       YES                   
    ## 10 20th centu… 10368 NONE             Indoor r… YES       YES                   
    ## # ℹ 3,445 more rows
    ## # ℹ abbreviated name: ¹​barrier_free_accessibilty_entr
    ## # ℹ 32 more variables: bike_parking <chr>, exterior_fire_escape <chr>,
    ## #   fire_alarm <chr>, garbage_chutes <chr>, heating_type <chr>, intercom <chr>,
    ## #   laundry_room <chr>, locker_or_storage_room <chr>, no_of_elevators <dbl>,
    ## #   parking_type <chr>, pets_allowed <chr>, prop_management_company_name <chr>,
    ## #   property_type <chr>, rsn <dbl>, separate_gas_meters <chr>, …
…
``` r
#create rise_level and move it forward as first column
apt_buildings %>%
  mutate(rise_level = case_when(no_of_storeys < 11 ~ 'low-rise',
                                no_of_storeys < 16 ~ 'mid-rise', 
                                TRUE ~ 'high-rise')) %>%
  relocate(rise_level)
```

    ## # A tibble: 3,455 × 38
    ##    rise_level    id air_conditioning amenities  balconies barrier_free_accessi…¹
    ##    <chr>      <dbl> <chr>            <chr>      <chr>     <chr>                 
    ##  1 high-rise  10359 NONE             Outdoor r… YES       YES                   
    ##  2 mid-rise   10360 NONE             Outdoor p… YES       NO                    
    ##  3 low-rise   10361 NONE             <NA>       YES       NO                    
    ##  4 low-rise   10362 NONE             <NA>       YES       YES                   
    ##  5 low-rise   10363 NONE             <NA>       NO        NO                    
    ##  6 low-rise   10364 NONE             <NA>       NO        NO                    
    ##  7 low-rise   10365 NONE             <NA>       NO        YES                   
    ##  8 low-rise   10366 CENTRAL AIR      Indoor po… YES       NO                    
    ##  9 high-rise  10367 NONE             <NA>       YES       YES                   
    ## 10 low-rise   10368 NONE             Indoor re… YES       YES                   
    ## # ℹ 3,445 more rows
    ## # ℹ abbreviated name: ¹​barrier_free_accessibilty_entr
    ## # ℹ 32 more variables: bike_parking <chr>, exterior_fire_escape <chr>,
    ## #   fire_alarm <chr>, garbage_chutes <chr>, heating_type <chr>, intercom <chr>,
    ## #   laundry_room <chr>, locker_or_storage_room <chr>, no_of_elevators <dbl>,
    ## #   parking_type <chr>, pets_allowed <chr>, prop_management_company_name <chr>,
    ## #   property_type <chr>, rsn <dbl>, separate_gas_meters <chr>, …
…
For this task, I will compute the number of NAs for all variables in
`apt_buildings` and generate a new tibble with the new observations. I
will also count the total number of levels as a reference.

``` r
#count NA and tidy data
apt_buildings_NA <- apt_buildings %>%
  summarise(across(everything(), ~ sum(is.na(.)))) %>% 
  pivot_longer(cols = everything(), names_to = 'col_name', values_to = 'NA_count') 

print(apt_buildings_NA)
```

    ## # A tibble: 37 × 2
    ##    col_name                       NA_count
    ##    <chr>                             <int>
    ##  1 id                                    0
    ##  2 air_conditioning                     85
    ##  3 amenities                          2518
    ##  4 balconies                            88
    ##  5 barrier_free_accessibilty_entr       82
    ##  6 bike_parking                          0
    ##  7 exterior_fire_escape                 95
    ##  8 fire_alarm                           87
    ##  9 garbage_chutes                       83
    ## 10 heating_type                         86
    ## # ℹ 27 more rows
…
  #use desc() to sort rows in descending order
  arrange(desc(no_of_units)) %>%

  #use rename() to shorten column labels
  rename(storeys = no_of_storeys,
         units = no_of_units) %>%
  
  #use slice() to remove first outlier row with 4000+ units
  slice(-1)

print(apt_buildings_unit_storeys)
```

    ## # A tibble: 3,454 × 2
    ##    units storeys
    ##    <dbl>   <dbl>
    ##  1   719      29
    ##  2   638      28
    ##  3   587      29
    ##  4   584      29
    ##  5   575      22
    ##  6   575      30
    ##  7   571      32
    ##  8   568      22
    ##  9   565      32
    ## 10   561      25
    ## # ℹ 3,444 more rows
…
  #use summarise(), across(), everything() and is.na() to count NA
  summarise(across(everything(), ~ sum(is.na(.)))) %>% 
  
  #use pivot_longer() to tidy data
  pivot_longer(cols = everything(), names_to = 'col_name', values_to = 'NA_count') %>%

  #use desc() to sort rows in descending order
  arrange(desc(NA_count))

print(apt_buildings_NA)
```

    ## # A tibble: 37 × 2
    ##    col_name                         NA_count
    ##    <chr>                               <int>
    ##  1 amenities                            2518
    ##  2 prop_management_company_name         1363
    ##  3 parking_type                          350
    ##  4 no_barrier_free_accessible_units      154
    ##  5 no_of_accessible_parking_spaces       123
    ##  6 exterior_fire_escape                   95
    ##  7 non-smoking_building                   94
    ##  8 intercom                               90
    ##  9 pets_allowed                           90
    ## 10 year_registered                        89
    ## # ℹ 27 more rows
…
