…
``` r
#count unique dataset in vancouver_trees
trees_summary_tbl <- summarise(vancouver_trees, across(c(tree_id:latitude), n_distinct))

trees_long_summary_tbl <- games_summary_tbl %>% pivot_longer(cols = everything(), names_to = 'variable_name', values_to = 'n_distinct')
print(trees_long_summary_tbl, n = 20)
```

    ## # A tibble: 21 × 2
    ##    variable_name            n_distinct
    ##    <chr>                         <int>
    ##  1 id                            40833
    ##  2 url                           40833
    ##  3 types                             4
    ##  4 name                          40752
    ##  5 desc_snippet                  27412
    ##  6 recent_reviews                 1301
    ##  7 all_reviews                    9211
    ##  8 release_date                   4110
    ##  9 developer                     17419
    ## 10 publisher                     15282
    ## 11 popular_tags                  20854
    ## 12 game_details                   6017
    ## 13 languages                      5497
    ## 14 achievements                    361
    ## 15 genre                          1769
    ## 16 game_description              37497
    ## 17 mature_content                 1263
    ## 18 minimum_requirements          14765
    ## 19 recommended_requirements      13839
    ## 20 original_price                  436
    ## # ℹ 1 more row
…
I chose this exercise because, as mentioned above, one research question
that I am interested in exploring is the relationship between the year
that a building was built and allowance for pet to examine if there is a
correlation between time and pet allowance. This new tibble will provide
a quick glimpse of the relevant data and can be further manipulated in
the future to make a graph.

``` r
apt_buildings %>%
  select(year_built, pets_allowed) %>%
  arrange(year_built)
```

    ## # A tibble: 3,455 × 2
    ##    year_built pets_allowed
    ##         <dbl> <chr>       
    ##  1       1805 YES         
    ##  2       1809 YES         
    ##  3       1838 YES         
    ##  4       1880 YES         
    ##  5       1885 YES         
    ##  6       1885 YES         
    ##  7       1888 YES         
    ##  8       1890 YES         
    ##  9       1891 YES         
    ## 10       1895 NO          
    ## # ℹ 3,445 more rows
…
